<svg width="24" height="24" viewBox="0 0 24 24" fill="none" xmlns="http://www.w3.org/2000/svg">
<circle cx="12" cy="12" r="12" fill="black"/>
<path fill-rule="evenodd" clip-rule="evenodd" d="M14.7338 5C14.9647 6.98666 16.0731 8.1711 18 8.29711V10.5316C16.8833 10.6408 15.9051 10.2754 14.7674 9.58655V13.7657C14.7674 19.0747 8.98239 20.7337 6.65662 16.9284C5.16209 14.4797 6.07728 10.183 10.8716 10.0108V12.367C10.5063 12.4258 10.1159 12.5182 9.75905 12.64C8.69272 13.0013 8.08819 13.6775 8.25612 14.8703C8.57937 17.1552 12.7691 17.8314 12.4207 13.3667V5.0042H14.7338V5Z" fill="#EA1361"/>
</svg>
